0.07272732257843018 
0.0636364221572876 
0.07272732257843018 
0.0636364221572876 
0.07272732257843018 
0.0636364221572876 
0.07272732257843018 
0.0636364221572876 
0.07272732257843018 
0.0636364221572876 
0.07272732257843018 
0.0636364221572876 
0.07272732257843018 
0.0636364221572876 
0.07272732257843018 
0.0636364221572876 
0.07272732257843018 
0.0636364221572876 
0.07272732257843018 
0.0636364221572876 
0.07272732257843018 
0.0636364221572876 
0.07272732257843018 
0.0636364221572876 
0.07272732257843018 
0.0636364221572876 
0.07272732257843018 
0.0636364221572876 
0.07272732257843018 
0.0636364221572876 
0.07272732257843018 
0.0636364221572876 
0.07272732257843018 
0.0636364221572876 
0.07272732257843018 
0.0636364221572876 
0.07272732257843018 
0.0636364221572876 
0.07272732257843018 
0.0636364221572876 
0.07272732257843018 
0.0636364221572876 
0.07272732257843018 
0.0636364221572876 
0.07272732257843018 
0.0636364221572876 
0.07272732257843018 
0.0636364221572876 
0.07272732257843018 
0.0636364221572876 
0.07272732257843018 
0.0636364221572876 
0.07272732257843018 
0.0636364221572876 
0.07272732257843018 
0.0636364221572876 
0.07272732257843018 
0.0636364221572876 
0.07272732257843018 
0.0636364221572876 
0.07272732257843018 
0.0636364221572876 
0.07272732257843018 
0.0636364221572876 
0.07272732257843018 
0.0636364221572876 
0.07272732257843018 
0.0636364221572876 
0.07272732257843018 
0.0636364221572876 
0.07272732257843018 
0.0636364221572876 
0.07272732257843018 
0.0636364221572876 
0.07272732257843018 
0.0636364221572876 
0.07272732257843018 
0.0636364221572876 
0.07272732257843018 
0.0636364221572876 
0.07272732257843018 
0.0636364221572876 
0.07272732257843018 
0.0636364221572876 
0.07272732257843018 
0.0636364221572876 
0.07272732257843018 
0.0636364221572876 
0.07272732257843018 
0.0636364221572876 
0.07272732257843018 
0.0636364221572876 
0.07272732257843018 
0.0636364221572876 
0.05454540252685547 
0.07272732257843018 
0.08181822299957275 
0.07272732257843018 
0.0636364221572876 
0.05454540252685547 
0.0636364221572876 
0.07272732257843018 
0.0636364221572876 
0.05454540252685547 
0.0636364221572876 
0.07272732257843018 
0.0636364221572876 
0.05454540252685547 
0.0636364221572876 
0.07272732257843018 
0.0636364221572876 
