0 info it worked if it ends with ok
1 verbose cli [ '/usr/bin/nodejs', '/usr/bin/npm', 'instal', 'roslibjs' ]
2 info using npm@1.3.10
3 info using node@v0.10.25
4 warn package.json convnetjs@0.3.0 No repository field.
5 warn package.json http@0.0.0 No repository field.
6 verbose readDependencies using package.json deps
7 verbose cache add [ 'roslibjs', null ]
8 verbose cache add name=undefined spec="roslibjs" args=["roslibjs",null]
9 verbose parsed url { protocol: null,
9 verbose parsed url   slashes: null,
9 verbose parsed url   auth: null,
9 verbose parsed url   host: null,
9 verbose parsed url   port: null,
9 verbose parsed url   hostname: null,
9 verbose parsed url   hash: null,
9 verbose parsed url   search: null,
9 verbose parsed url   query: null,
9 verbose parsed url   pathname: 'roslibjs',
9 verbose parsed url   path: 'roslibjs',
9 verbose parsed url   href: 'roslibjs' }
10 silly lockFile d0114be9-roslibjs roslibjs
11 verbose lock roslibjs /home/kendemu/.npm/d0114be9-roslibjs.lock
12 silly lockFile d0114be9-roslibjs roslibjs
13 silly lockFile d0114be9-roslibjs roslibjs
14 verbose addNamed [ 'roslibjs', '' ]
15 verbose addNamed [ null, '*' ]
16 silly lockFile 6ceb4a1c-roslibjs roslibjs@
17 verbose lock roslibjs@ /home/kendemu/.npm/6ceb4a1c-roslibjs.lock
18 silly addNameRange { name: 'roslibjs', range: '*', hasData: false }
19 verbose url raw roslibjs
20 verbose url resolving [ 'https://registry.npmjs.org/', './roslibjs' ]
21 verbose url resolved https://registry.npmjs.org/roslibjs
22 info trying registry request attempt 1 at 15:02:21
23 http GET https://registry.npmjs.org/roslibjs
24 http 404 https://registry.npmjs.org/roslibjs
25 silly registry.get cb [ 404,
25 silly registry.get   { server: 'CouchDB/1.5.0 (Erlang OTP/R16B03)',
25 silly registry.get     etag: '"3RWMSXKS756XCM55H6T67NS8A"',
25 silly registry.get     'content-type': 'application/json',
25 silly registry.get     'cache-control': 'max-age=0',
25 silly registry.get     'content-length': '419',
25 silly registry.get     'accept-ranges': 'bytes',
25 silly registry.get     date: 'Sat, 01 Aug 2015 06:02:21 GMT',
25 silly registry.get     via: '1.1 varnish',
25 silly registry.get     age: '0',
25 silly registry.get     connection: 'keep-alive',
25 silly registry.get     'x-served-by': 'cache-nrt6122-NRT',
25 silly registry.get     'x-cache': 'MISS',
25 silly registry.get     'x-cache-hits': '0',
25 silly registry.get     'x-timer': 'S1438408941.443727,VS0,VE480',
25 silly registry.get     vary: 'Accept' } ]
26 silly addNameRange number 2 { name: 'roslibjs', range: '*', hasData: true }
27 silly addNameRange versions [ 'roslibjs', [] ]
28 error TypeError: Cannot read property 'latest' of undefined
28 error     at next (/usr/share/npm/lib/cache.js:687:35)
28 error     at /usr/share/npm/lib/cache.js:675:5
28 error     at saved (/usr/share/npm/node_modules/npm-registry-client/lib/get.js:142:7)
28 error     at /usr/lib/nodejs/graceful-fs/polyfills.js:133:7
28 error     at Object.oncomplete (fs.js:107:15)
29 error If you need help, you may report this log at:
29 error     <http://github.com/isaacs/npm/issues>
29 error or email it to:
29 error     <npm-@googlegroups.com>
30 error System Linux 3.16.0-34-generic
31 error command "/usr/bin/nodejs" "/usr/bin/npm" "instal" "roslibjs"
32 error cwd /home/kendemu/workspace/drone/BebopFlightApp
33 error node -v v0.10.25
34 error npm -v 1.3.10
35 error type non_object_property_load
36 verbose exit [ 1, true ]
